trace.vcd
$date
     Mar 15, 2022       11:31:30
$end

$version
 SystemC 2.3.3-Accellera --- Feb 10 2020 17:10:41
$end

$timescale
     1 ns
$end

$scope module SystemC $end
$var wire   23  aaaaa  in_real [22:0]  $end
$var wire   23  aaaab  in_imag [22:0]  $end
$var wire    1  aaaac  data_valid       $end
$var wire    1  aaaad  data_req       $end
$var wire    1  aaaae  clk       $end
$var wire   23  aaaaf  out_real [22:0]  $end
$var wire   23  aaaag  out_imag [22:0]  $end
$var wire    1  aaaah  data_valid_sink       $end
$var wire    1  aaaai  data_req_sink       $end
$upscope $end
$enddefinitions  $end

$comment
All initial values are dumped below at time 0 sec = 0 timescale units.
$end

$dumpvars
b1111101101100000 aaaaa
b1111101101100000 aaaab
1aaaac
1aaaad
1aaaae
b0 aaaaf
b0 aaaag
0aaaah
1aaaai
$end

#1
0aaaae

#2
1aaaae

#3
0aaaae

#4
1aaaae

#5
0aaaae

#6
1aaaae

#7
0aaaae

#8
1aaaae

#9
0aaaae

#10
1aaaae

#11
0aaaae

#12
1aaaae

#13
0aaaae

#14
1aaaae

#15
0aaaae

#16
b100000 aaaaa
b100000 aaaab
0aaaad
1aaaae

#17
0aaaae

#18
1aaaae
1aaaah

#19
0aaaae

#20
1aaaae

#21
0aaaae

#22
1aaaae

#23
0aaaae

#24
1aaaae

#25
0aaaae

#26
1aaaae

#27
0aaaae

#28
1aaaae

#29
0aaaae

#30
1aaaae

#31
0aaaae

#32
1aaaae

#33
0aaaae

#34
1aaaad
1aaaae
0aaaah

#35
0aaaae

#36
b0 aaaaa
b0 aaaab
1aaaae

#37
0aaaae

#38
1aaaae

#39
0aaaae

#40
1aaaae

#41
0aaaae

#42
1aaaae

#43
0aaaae

#44
1aaaae

#45
0aaaae

#46
1aaaae

#47
0aaaae

#48
1aaaae

#49
0aaaae

#50
b11100100000000 aaaab
0aaaad
1aaaae

#51
0aaaae

#52
1aaaae
1aaaah

#53
0aaaae

#54
1aaaae

#55
0aaaae

#56
1aaaae

#57
0aaaae

#58
1aaaae

#59
0aaaae

#60
1aaaae

#61
0aaaae

#62
1aaaae

#63
0aaaae

#64
1aaaae

#65
0aaaae

#66
1aaaae

#67
0aaaae

#68
1aaaad
1aaaae
0aaaah

#69
0aaaae

#70
b111100000000 aaaaa
b1110101000000 aaaab
1aaaae

#71
0aaaae

#72
b1110101000000 aaaaa
b111100000000 aaaab
1aaaae

#73
0aaaae

#74
b111100000000 aaaaa
b0 aaaab
1aaaae

#75
0aaaae

#76
b0 aaaaa
b11111111111000100000000 aaaab
1aaaae

#77
0aaaae

#78
b11111111111000100000000 aaaaa
b11111111110001011000000 aaaab
1aaaae

#79
0aaaae

#80
b11111111110001011000000 aaaaa
b11111111100011100000000 aaaab
1aaaae

#81
0aaaae

#82
b11111111111000100000000 aaaaa
b11111111010000000000000 aaaab
1aaaae

#83
0aaaae

#84
b111101100000 aaaaa
b1110100000 aaaab
0aaaad
1aaaae

#85
0aaaae

#86
1aaaae
1aaaah

#87
0aaaae

#88
1aaaae

#89
0aaaae

#90
1aaaae

#91
0aaaae

#92
1aaaae

#93
0aaaae

#94
1aaaae

#95
0aaaae

#96
1aaaae

#97
0aaaae

#98
1aaaae

#99
0aaaae

#100
1aaaae

#101
0aaaae

#102
1aaaad
1aaaae
0aaaah

#103
0aaaae

#104
b10001000000 aaaaa
b10001000000 aaaab
1aaaae

#105
0aaaae

#106
b11111111111110100100000 aaaaa
b101010100000 aaaab
1aaaae

#107
0aaaae

#108
b110000000 aaaaa
b1100111000000 aaaab
1aaaae

#109
0aaaae

#110
b10110100000 aaaaa
b10101000000000 aaaab
1aaaae

#111
0aaaae

#112
b0 aaaaa
b100101000100000 aaaab
1aaaae

#113
0aaaae

#114
b100001100000 aaaaa
b110011011100000 aaaab
1aaaae

#115
0aaaae

#116
b1000011000000 aaaaa
b11010011000000 aaaab
1aaaae

