Mini Projet/trace.vcd
$date
     Feb 22, 2022       12:05:29
$end

$version
 SystemC 2.3.3-Accellera --- Feb 10 2020 17:10:41
$end

$timescale
     1 ns
$end

$scope module SystemC $end
$scope module top $end
$var real    1  aaaaa  fifo_0_0       $end
$var real    1  aaaab  fifo_0_1       $end
$var real    1  aaaac  fifo_0_2       $end
$var real    1  aaaad  fifo_0_3       $end
$var real    1  aaaae  fifo_0_4       $end
$var real    1  aaaaf  fifo_0_5       $end
$var real    1  aaaag  fifo_0_6       $end
$var real    1  aaaah  fifo_0_7       $end
$var real    1  aaaai  fifo_0_8       $end
$var real    1  aaaaj  fifo_0_9       $end
$var real    1  aaaak  fifo_0_10       $end
$var real    1  aaaal  fifo_0_11       $end
$var real    1  aaaam  fifo_0_12       $end
$var real    1  aaaan  fifo_0_13       $end
$var real    1  aaaao  fifo_0_14       $end
$var real    1  aaaap  fifo_0_15       $end
$var real    1  aaaaq  fifo_1_0       $end
$var real    1  aaaar  fifo_1_1       $end
$var real    1  aaaas  fifo_1_2       $end
$var real    1  aaaat  fifo_1_3       $end
$var real    1  aaaau  fifo_1_4       $end
$var real    1  aaaav  fifo_1_5       $end
$var real    1  aaaaw  fifo_1_6       $end
$var real    1  aaaax  fifo_1_7       $end
$var real    1  aaaay  fifo_1_8       $end
$var real    1  aaaaz  fifo_1_9       $end
$var real    1  aaaba  fifo_1_10       $end
$var real    1  aaabb  fifo_1_11       $end
$var real    1  aaabc  fifo_1_12       $end
$var real    1  aaabd  fifo_1_13       $end
$var real    1  aaabe  fifo_1_14       $end
$var real    1  aaabf  fifo_1_15       $end
$upscope $end
$upscope $end
$enddefinitions  $end

$comment
All initial values are dumped below at time 0 sec = 0 timescale units.
$end

$dumpvars
r0 aaaaa
r2011 aaaab
r2011 aaaac
r2011 aaaad
r3.559244355763391e-17 aaaae
r1.832023514993055e+25 aaaaf
r6.593495034451775e+22 aaaag
r7.555081327053433e+31 aaaah
r1.163049618668772e+33 aaaai
r1.069251965022726e-38 aaaaj
r3.459590036322679e-12 aaaak
r0 aaaal
r0 aaaam
r0 aaaan
r0 aaaao
r0 aaaap
r0 aaaaq
r0 aaaar
r0 aaaas
r0 aaaat
r3.559244355763391e-17 aaaau
r1.832023514993055e+25 aaaav
r6.593495034451775e+22 aaaaw
r7.555081327053433e+31 aaaax
r0 aaaay
r0 aaaaz
r0 aaaba
r0 aaabb
r0 aaabc
r0 aaabd
r0 aaabe
r0 aaabf
$end

#1
r0 aaaab
r2011 aaaar

#2
r0 aaaac
r2011 aaaae
r2011 aaaaf
r0 aaaar
r2011 aaaas

#3
r0 aaaad
r2011 aaaat

#4
r0 aaaae
r2011 aaaag
r2011 aaaah
r0 aaaas
r2011 aaaau

#5
r0 aaaaf
r2011 aaaav

#6
r0 aaaag
r2011 aaaai
r2011 aaaaj
r0 aaaat
r2011 aaaaw

#7
r0 aaaah
r2011 aaaax

#8
r0 aaaai
r2011 aaaak
r2011 aaaal
r0 aaaau
r2011 aaaay

#9
r0 aaaaj
r2011 aaaaz

#10
r0 aaaak
r2011 aaaam
r2011 aaaan
r0 aaaav
r2011 aaaba

#11
r0 aaaal
r2011 aaabb

#12
r0 aaaam
r2011 aaaao
r2011 aaaap
r0 aaaaw
r2011 aaabc

#13
r0 aaaan
r2011 aaabd

#14
r1 aaaaa
r1 aaaab
r0 aaaao
r0 aaaax
r2011 aaabe

#15
r0 aaaap
r2011 aaabf

#16
r0 aaaaa
r1 aaaaq
r0 aaaay

#17
r0 aaaab
r1 aaaar

#18
r0 aaaaz

#20
r0 aaaba

#22
r0 aaabb

#24
r0 aaabc

#26
r0 aaabd

#28
r0 aaabe

#30
r0 aaabf

#32
r0 aaaaq

#34
r0 aaaar

