Mini Projet/trace.vcd
$date
     Feb 22, 2022       17:32:35
$end

$version
 SystemC 2.3.3-Accellera --- Feb 10 2020 17:10:41
$end

$timescale
     1 ns
$end

$scope module SystemC $end
$var real    1  aaaaa  in_real       $end
$var real    1  aaaab  in_imag       $end
$var wire    1  aaaac  data_valid       $end
$var wire    1  aaaad  data_req       $end
$var wire    1  aaaae  clk       $end
$upscope $end
$enddefinitions  $end

$comment
All initial values are dumped below at time 0 sec = 0 timescale units.
$end

$dumpvars
r2011 aaaaa
r2011 aaaab
1aaaac
1aaaad
1aaaae
$end

#1
0aaaae

#2
r20112 aaaab
1aaaae

#3
0aaaae

#4
r20113 aaaab
1aaaae

#5
0aaaae

#6
r20114 aaaab
1aaaae

#7
0aaaae

#8
r20115 aaaab
1aaaae

#9
0aaaae

#10
r20116 aaaab
1aaaae

#11
0aaaae

#12
r20117 aaaab
1aaaae

#13
0aaaae

#14
r2011 aaaab
1aaaae

#15
0aaaae

#16
r1 aaaaa
r1 aaaab
0aaaad
1aaaae

#17
0aaaae

#18
1aaaad
1aaaae

#19
0aaaae

#20
r2 aaaaa
1aaaae

#21
0aaaae

#22
r3 aaaaa
1aaaae

#23
0aaaae

#24
r4 aaaaa
1aaaae

#25
0aaaae

#26
r5 aaaaa
1aaaae

#27
0aaaae

#28
r6 aaaaa
1aaaae

#29
0aaaae

#30
r7 aaaaa
1aaaae

#31
0aaaae

#32
r8 aaaaa
1aaaae

#33
0aaaae

#34
0aaaac
0aaaad
1aaaae

#35
0aaaae

#36
1aaaad
1aaaae

